{
  "id": "forbidden-lands_zh_tw",
  "title": "禁忌之地—正體中文",
  "description": "為 FVTT 中的 Forbidden Lands 系统增加正體中文。",
  "authors": [
    {
      "name": "sassttrpg",
      "flags": {}
    }
  ],
  "url": "https://gitlab.com/fvtt-zh_TW/forbidden-lands_zh_tw",
  "version": "11",
  "compatibility": {
    "minimum": "10",
    "verified": "11",
    "maximum": "11"
  },
  "scripts": [
    "babele.js"
  ],
  "languages": [
    {
      "lang": "zh-tw",
      "name": "正體中文",
      "path": "lang/zh-tw.json",
      "flags": {}
    }
  ],
  "packs": [
    {
      "name": "core-game",
      "label": "Core Game",
      "system": "forbidden-lands",
      "path": "packs/core-game.db",
      "type": "Adventure",
      "private": false,
      "flags": {}
    }
  ],
  "manifest": "https://gitlab.com/fvtt-zh_TW/forbidden-lands_zh_TW/-/raw/master/module.json",
  "download": "https://gitlab.com/fvtt-zh_TW/forbidden-lands_zh_TW/-/archive/master/forbidden-lands_zh_TW-master.zip"
}